Expected limit: 0.513665854931 +0.201208412647 -0.143541157246
Observed limit: 1.01497411728
Expected limit: 0.51^{+0.20}_{-0.14}
Observed limit: 1.01
 
obs -2s -1s exp +1s _2s
1.01 & 0.28 &  0.37 & 0.51 & 0.71 & 0.96 \
