Expected limit: 10.9489107132 +4.28880500793 -3.05961465836
Observed limit: 9.09959506989
Expected limit: 10.95^{+4.29}_{-3.06}
Observed limit: 9.10
 
obs -2s -1s exp +1s _2s
9.10 & 5.88 &  7.89 & 10.95 & 15.24 & 20.43 \
