500  : 156.5E-06,
600  : 92.2E-06,
700  : 57.0E-06,
800  : 37.0E-06,
900  : 24.79E-06,
1000 : 17.01E-06,
1100 : 11.92E-06,
1200 : 8.53E-06,
1300 : 6.22E-06,
1400 : 4.55E-06,
1500 : 3.37E-06,
1600 : 2.525E-06,
1700 : 1.913E-06,
1800 : 1.464E-06,
1900 : 1.129E-06,
2000 : 0.869E-06,
2200 : 0.523E-06,
2400 : 0.321E-06,
2600 : 0.2003E-06,
2800 : 0.1277E-06,
3000 : 0.0815E-06,
3500 : 0.02682E-06,
4000 : 0.00911E-06,
4500 : 0.00318E-06,
5000 : 0.001060E-06,
