500 : 3673E-06,
600 : 2247E-06,
700 : 1426E-06,
800 : 942E-06,
900 : 640E-06,
1000: 444E-06,
1100: 314E-06,
1200: 226.8E-06,
1300: 166.5E-06,
1400: 122.6E-06,
1500: 91.3E-06,
1600: 68.7E-06,
1700: 52.3E-06,
1800: 40.2E-06,
1900: 31.1E-06,
2000: 24.02E-06,
2200: 14.54E-06,
2400: 8.96E-06,
2600: 5.63E-06,
2800: 3.60E-06,
3000: 2.308E-06,
3500: 0.766E-06,
4000: 0.2622E-06,
4500: 0.0920E-06,
5000: 0.0308E-06,
