200  : 194000.0E-06,
300  : 28100.0E-06,
400  : 6810.0E-06,
500  : 1900.0E-06,
600  : 647.0E-06,
700  : 268.0E-06,
800  : 127.0E-06,
900  : 63.7E-06,
1000 : 35.1E-06,
1100 : 21.7E-06,
1200 : 13.4E-06,
1300 : 8.26E-06,
1400 : 5.1E-06,
1500 : 3.15E-06,
1600 : 2.13E-06,
1700 : 1.45E-06,
1800 : 0.979E-06,
1900 : 0.684E-06,
2000 : 0.478E-06,
2200 : 0.252E-06,
2400 : 0.133E-06,
2600 : 0.0723E-06,
2800 : 0.0404E-06,
3000 : 0.0226E-06,
3500 : 0.0059E-06,
4000 : 0.0016E-06,
4500 : 0.0005E-06,
5000 : 0.0001E-06,
